intro-to-imprinting
…
library(imprinting) 

Now the package should be installed and loaded into your R workspace.

2. Use the package to calculate imprinting probabilities

The main reason to use the imprinting package is to calculate birth year-specific probabilities of imprinting to a specific subtype of influenza A. You can read more about the biology and methods behind these calculations in Gostic et al. 2016.

2.1 Calculate imprinting probabilities for one country and year of observation

Use the function get_imprinting_probabilities(). Run ?get_imprinting_probabilities for help.

get_imprinting_probabilities(observation_years = 2022, countries = "United States")
#> # A tibble: 420 × 5
#>     year country       birth_year subtype imprinting_prob
#>    <dbl> <chr>              <dbl> <chr>             <dbl>
#>  1  2022 United States       2022 A/H1N1        0.0000297
#>  2  2022 United States       2021 A/H1N1        0.0000679
#>  3  2022 United States       2020 A/H1N1        0.0702   
#>  4  2022 United States       2019 A/H1N1        0.152    
#>  5  2022 United States       2018 A/H1N1        0.171    
#>  6  2022 United States       2017 A/H1N1        0.147    
#>  7  2022 United States       2016 A/H1N1        0.225    
#>  8  2022 United States       2015 A/H1N1        0.169    
#>  9  2022 United States       2014 A/H1N1        0.308    
#> 10  2022 United States       2013 A/H1N1        0.321    
#> # … with 410 more rows
#> # ℹ Use `print(n = ...)` to see more rows

The function returns a tibble wtih five columns: subtype, year, country, birth_year, and imprinting_prob. The column imprinting_prob gives the probability that someone born in birth_year and observed in year has imprinted to subtype.

We can run the same command use the df_format='wide' option to output the same results in wide format. This displays all imprinting probabilities for the cohort side-by-side

get_imprinting_probabilities(observation_years = 2022, 
                             countries = "United States", 
                             df_format = 'wide')
#> # A tibble: 105 × 7
#>     year country       birth_year `A/H1N1` `A/H2N2` `A/H3N2` naive
#>    <dbl> <chr>              <dbl>    <dbl>    <dbl>    <dbl> <dbl>
#>  1  2022 United States       1918        1        0        0     0
#>  2  2022 United States       1919        1        0        0     0
#>  3  2022 United States       1920        1        0        0     0
#>  4  2022 United States       1921        1        0        0     0
#>  5  2022 United States       1922        1        0        0     0
#>  6  2022 United States       1923        1        0        0     0
#>  7  2022 United States       1924        1        0        0     0
#>  8  2022 United States       1925        1        0        0     0
#>  9  2022 United States       1926        1        0        0     0
#> 10  2022 United States       1927        1        0        0     0
#> # … with 95 more rows
#> # ℹ Use `print(n = ...)` to see more rows
…
2.3 Generate probabilities for many countries and observation years

many_probabilities = get_imprinting_probabilities(observation_years = c(2000, 2019, 2022),
                                                  countries = c('Brazil', 'Afghanistan', 'Estonia', 'Finland')) 
#> Warning: Unknown or uninitialised column: `.data`.
## Store the outputs in a variable called many_probabilities
many_probabilities ## View the outputs in the console
#> # A tibble: 5,040 × 5
#>     year country     birth_year subtype imprinting_prob
#>    <dbl> <chr>            <dbl> <chr>             <dbl>
#>  1  2000 Brazil            2022 A/H1N1          0.331  
#>  2  2019 Brazil            2022 A/H1N1          0.197  
#>  3  2022 Brazil            2022 A/H1N1          0      
#>  4  2000 Afghanistan       2022 A/H1N1          0.536  
#>  5  2019 Afghanistan       2022 A/H1N1          0.110  
#>  6  2022 Afghanistan       2022 A/H1N1          0.00138
#>  7  2000 Estonia           2022 A/H1N1          0.485  
#>  8  2019 Estonia           2022 A/H1N1          0.188  
#>  9  2022 Estonia           2022 A/H1N1          0      
#> 10  2000 Finland           2022 A/H1N1          0.239  
#> # … with 5,030 more rows
#> # ℹ Use `print(n = ...)` to see more rows
…
4. Explore the underlying data and components of the imprinting probabilities

Get the fraction of influenza circulation caused by each subtype in each epidemic year from 1918-2022 in the United States using get_country_cocirculation. Run ?get_country_cocirculation_data for notes on data sources.

get_country_cocirculation_data('United States', 2022)
#> # A tibble: 105 × 9
#>     year `A/H1N1` `A/H2N2` `A/H3N2`     A B     group1 group2 data_from         
#>    <dbl>    <dbl>    <dbl>    <dbl> <dbl> <lgl>  <dbl>  <dbl> <chr>             
#>  1  1918        1        0        0     1 NA         1      0 Historical_assump…
#>  2  1919        1        0        0     1 NA         1      0 Historical_assump…
#>  3  1920        1        0        0     1 NA         1      0 Historical_assump…
#>  4  1921        1        0        0     1 NA         1      0 Historical_assump…
#>  5  1922        1        0        0     1 NA         1      0 Historical_assump…
#>  6  1923        1        0        0     1 NA         1      0 Historical_assump…
#>  7  1924        1        0        0     1 NA         1      0 Historical_assump…
#>  8  1925        1        0        0     1 NA         1      0 Historical_assump…
#>  9  1926        1        0        0     1 NA         1      0 Historical_assump…
#> 10  1927        1        0        0     1 NA         1      0 Historical_assump…
#> # … with 95 more rows
#> # ℹ Use `print(n = ...)` to see more rows

Get the circulation intensity of influenza A in each epidemic year using get_country_intensity_data().

Intensity of 1 is average. Higher values indicate more influenza A circulation, lower values indicate less circulation.

See ?get_country_intensity_data for details on underlying data.

get_country_intensity_data(country = 'China', max_year = 2022)
#> # A tibble: 113 × 2
#>     year intensity
#>    <dbl>     <dbl>
#>  1  1911      1   
#>  2  1912      1   
#>  3  1913      1   
#>  4  1914      1   
#>  5  1915      1.12
#>  6  1916      1.29
#>  7  1917      1.23
#>  8  1918      2.5 
#>  9  1919      2.5 
#> 10  1920      1.87
#> # … with 103 more rows
#> # ℹ Use `print(n = ...)` to see more rows
…
