imprinting • imprinting
…
# Install devtools
install.packages("devtools")
# Use devtools to install impritning from github
devtools::install_github("cobeylab/imprinting") 

Usage

library(imprinting)

## Get imprinting probabilities
probs = get_imprinting_probabilities(observation_years = c(2000, 2022),
                             countries = c('United States', 'Brazil', 'Vietnam', 'Indonesia'))
probs
#> # A tibble: 3,360 × 5
#>   subtype  year country       birth_year imprinting_prob
#>   <chr>   <int> <chr>              <int>           <dbl>
#> 1 H1N1     2000 United States       2022               0
#> 2 H1N1     2000 United States       2021               0
#> 3 H1N1     2000 United States       2020               0
#> 4 H1N1     2000 United States       2019               0
#> 5 H1N1     2000 United States       2018               0
#> # … with 3,355 more rows
…
