custom-imprinting-types • imprinting
…
## Add a vaccination column
US_frequencies <- US_frequencies %>%
  mutate(vaccination = c(rep(0, 77), seq(.5, .75, length = 26), .75, .75), # Add a vaccination column
         `A/H1N1` = `A/H1N1`*(1-vaccination), # Assume only non-vaccinated children have primary
         `A/H2N2` = `A/H2N2`*(1-vaccination), # infections; multiply the subtype-specific circulation
         `A/H3N2` = `A/H3N2`*(1-vaccination)) # fractions by one minus the year's vaccination probability.
tail(US_frequencies, n = 30)
#> # A tibble: 30 × 5
#>     year `A/H1N1` `A/H2N2` `A/H3N2` vaccination
#>    <dbl>    <dbl>    <dbl>    <dbl>       <dbl>
#>  1  1993  0.105          0    0.895        0   
#>  2  1994  0.00522        0    0.995        0   
#>  3  1995  0.0108         0    0.489        0.5 
#>  4  1996  0.288          0    0.202        0.51
#>  5  1997  0              0    0.48         0.52
#>  6  1998  0.00444        0    0.466        0.53
#>  7  1999  0.00372        0    0.456        0.54
#>  8  2000  0.130          0    0.320        0.55
#>  9  2001  0.335          0    0.105        0.56
#> 10  2002  0.0155         0    0.415        0.57
#> # … with 20 more rows
…
# Wrap the country-specific frequencies into a named list
input_list = list("United States" = US_frequencies,
                  "Germany" = Germany_frequencies)

## Calculate probabilities
get_imprinting_probabilities(observation_years = 2022, 
                             countries = c("United States", "Germany"), 
                             annual_frequencies = input_list, 
                             df_format = "wide")
#> # A tibble: 210 × 8
#>     year country       birth_year `A/H1N1` `A/H2N2` `A/H3N2` vaccination naive
#>    <dbl> <chr>              <dbl>    <dbl>    <dbl>    <dbl>       <dbl> <dbl>
#>  1  2022 United States       1918        1        0        0           0     0
#>  2  2022 United States       1919        1        0        0           0     0
#>  3  2022 United States       1920        1        0        0           0     0
#>  4  2022 United States       1921        1        0        0           0     0
#>  5  2022 United States       1922        1        0        0           0     0
#>  6  2022 United States       1923        1        0        0           0     0
#>  7  2022 United States       1924        1        0        0           0     0
#>  8  2022 United States       1925        1        0        0           0     0
#>  9  2022 United States       1926        1        0        0           0     0
#> 10  2022 United States       1927        1        0        0           0     0
#> # … with 200 more rows
…
