Calculate imprinting probabilities — get_imprinting_probabilities • imprinting
…
See vignette("custom-imprinting-types") for use of a custom annual_frequencies input.

    Examples

# ===========================================================
# Get imprinting probabilities for one country and year
get_imprinting_probabilities(2022, "United States")
#> # A tibble: 420 × 5
#>     year country       birth_year subtype imprinting_prob
#>    <dbl> <chr>              <dbl> <chr>             <dbl>
#>  1  2022 United States       2022 A/H1N1        0.0000297
#>  2  2022 United States       2021 A/H1N1        0.0000679
#>  3  2022 United States       2020 A/H1N1        0.0702   
#>  4  2022 United States       2019 A/H1N1        0.152    
#>  5  2022 United States       2018 A/H1N1        0.171    
#>  6  2022 United States       2017 A/H1N1        0.147    
#>  7  2022 United States       2016 A/H1N1        0.225    
#>  8  2022 United States       2015 A/H1N1        0.169    
#>  9  2022 United States       2014 A/H1N1        0.308    
#> 10  2022 United States       2013 A/H1N1        0.321    
#> # … with 410 more rows
# ===========================================================
# Return the same outputs in wide format
get_imprinting_probabilities(2022,
  "United States",
  df_format = "wide"
)
#> # A tibble: 105 × 7
#>     year country       birth_year `A/H1N1` `A/H2N2` `A/H3N2` naive
#>    <dbl> <chr>              <dbl>    <dbl>    <dbl>    <dbl> <dbl>
#>  1  2022 United States       1918        1        0        0     0
#>  2  2022 United States       1919        1        0        0     0
#>  3  2022 United States       1920        1        0        0     0
#>  4  2022 United States       1921        1        0        0     0
#>  5  2022 United States       1922        1        0        0     0
#>  6  2022 United States       1923        1        0        0     0
#>  7  2022 United States       1924        1        0        0     0
#>  8  2022 United States       1925        1        0        0     0
#>  9  2022 United States       1926        1        0        0     0
#> 10  2022 United States       1927        1        0        0     0
#> # … with 95 more rows
…
