Get data on the relative circulation of each influenza A subtype — get_country_cocirculation_data • imprinting
…
    The data come from three sources:
Historical assumptions: From 1918-1956, we assume only H1N1 circulated. From 1957-1967, we assume only H2N2 circulated. From 1968-1976, we assume only H3N2 circulated.

Thompson et al. JAMA, 2003: From 1977-1996 we pull data on the relative dominance of H1N1 and H3N2 from Table 1 of Thompson et al. 2003, which reports surveillance data collected in the United States.

From 1997-present, we pull in country or region-specific data from WHO Flu Mart on the fraction of specimens collected in routine influenza surveillance that test positive for each subtype. Country-specific data are the default. Regional data are if the number of country-specific specimens is insufficient. get_template_data() imports the data for 1918-1996. get_country_inputs_1997_to_present() and get_regional_inputs_1997_to_present() import the data for 1997 on.

    See also

    See Gostic et al. Science, 2016 for details.

    Examples

get_country_cocirculation_data("United States", "2019")
#> # A tibble: 108 × 9
#>     year `A/H1N1` `A/H2N2` `A/H3N2`     A B     group1 group2 data_from         
#>    <dbl>    <dbl>    <dbl>    <dbl> <dbl> <lgl>  <dbl>  <dbl> <chr>             
#>  1  1918        1        0        0     1 NA         1      0 Historical_assump…
#>  2  1919        1        0        0     1 NA         1      0 Historical_assump…
#>  3  1920        1        0        0     1 NA         1      0 Historical_assump…
#>  4  1921        1        0        0     1 NA         1      0 Historical_assump…
#>  5  1922        1        0        0     1 NA         1      0 Historical_assump…
#>  6  1923        1        0        0     1 NA         1      0 Historical_assump…
#>  7  1924        1        0        0     1 NA         1      0 Historical_assump…
#>  8  1925        1        0        0     1 NA         1      0 Historical_assump…
#>  9  1926        1        0        0     1 NA         1      0 Historical_assump…
#> 10  1927        1        0        0     1 NA         1      0 Historical_assump…
#> # … with 98 more rows
get_country_cocirculation_data("Laos", "2022", min_samples = 40)
#> # A tibble: 108 × 9
#>     year `A/H1N1` `A/H2N2` `A/H3N2`     A B     group1 group2 data_from         
#>    <dbl>    <dbl>    <dbl>    <dbl> <dbl> <lgl>  <dbl>  <dbl> <chr>             
#>  1  1918        1        0        0     1 NA         1      0 Historical_assump…
#>  2  1919        1        0        0     1 NA         1      0 Historical_assump…
#>  3  1920        1        0        0     1 NA         1      0 Historical_assump…
#>  4  1921        1        0        0     1 NA         1      0 Historical_assump…
#>  5  1922        1        0        0     1 NA         1      0 Historical_assump…
#>  6  1923        1        0        0     1 NA         1      0 Historical_assump…
#>  7  1924        1        0        0     1 NA         1      0 Historical_assump…
#>  8  1925        1        0        0     1 NA         1      0 Historical_assump…
#>  9  1926        1        0        0     1 NA         1      0 Historical_assump…
#> 10  1927        1        0        0     1 NA         1      0 Historical_assump…
#> # … with 98 more rows
…
